#date: 2020-01-22_12:49
#sample: denmark_pigs_4
#mge_finder version: 0.1.3a
#mgedb version: 0.2.2
#blastn version: 2.7.1+
name,synonyms,prediction,type,allele_len,depth,e_value,identity,coverage,gaps,substitution,contig,start
IS285,,predicted,insertion sequence,1300,13.794,0,0.848,0.971,20,181,NODE_1_length_919763_cov_13.793577,830484
MITEPlu5,,predicted,mite,111,13.794,0.0,0.865,0.902,0,15,NODE_1_length_919763_cov_13.793577,432659
MITEYpe1,,predicted,mite,117,13.794,0.0,0.786,0.951,0,25,NODE_1_length_919763_cov_13.793577,720741
MITEEc1,,predicted,mite,123,14.571,0.0,0.935,1.0,0,8,NODE_2_length_635754_cov_14.570559,623520
MITEYpe1,,predicted,mite,122,14.571,0.0,0.823,0.967,3,19,NODE_2_length_635754_cov_14.570559,570054
MITEYpe1,,predicted,mite,115,14.838,0.0,0.795,0.902,4,20,NODE_3_length_376801_cov_14.837780,135322
MITEPlu5,,predicted,mite,111,13.683,0.0,0.847,0.902,0,17,NODE_4_length_316081_cov_13.682593,174822
MITEYpe1,,predicted,mite,124,13.683,0.0,0.79,1.0,1,25,NODE_4_length_316081_cov_13.682593,29339
MITEEc1,,predicted,mite,124,15.168,0.0,0.795,0.951,7,19,NODE_5_length_282781_cov_15.168050,199446
MITEYpe1,,predicted,mite,123,14.501,0.0,0.78,1.0,0,27,NODE_7_length_239267_cov_14.500878,61515
MITEYpe1,,predicted,mite,112,14.501,0.0,0.777,0.911,0,25,NODE_7_length_239267_cov_14.500878,28869
MITEEc1,,predicted,mite,120,14.103,0.0,0.821,0.927,6,16,NODE_9_length_223576_cov_14.103451,36554
MITEYpe1,,predicted,mite,116,14.103,0.0,0.797,0.902,5,19,NODE_9_length_223576_cov_14.103451,34397
ISEc42,,predicted,insertion sequence,1285,13.345,0,0.864,1.009,2,175,NODE_10_length_201090_cov_13.345004,9919
MITEEc1,,predicted,mite,123,13.345,0.0,0.935,1.0,0,8,NODE_10_length_201090_cov_13.345004,125148
MITEEc1,,predicted,mite,120,14.893,0.0,0.805,0.935,5,19,NODE_14_length_90710_cov_14.893137,64371
MITEYpe1,,predicted,mite,114,14.893,0.0,0.793,0.902,3,21,NODE_14_length_90710_cov_14.893137,6613
ISSen1,,predicted,insertion sequence,1312,13.894,0,0.996,1.0,0,5,NODE_17_length_74838_cov_13.894460,73051
MITEYpe1,,predicted,mite,123,14.029,0.0,0.784,0.967,4,23,NODE_19_length_65082_cov_14.028527,4562
ISVsa5,IS10R,predicted,insertion sequence,1329,15.669,0,0.988,1.0,0,16,NODE_27_length_18876_cov_15.668676,4862
ISKpn14,,predicted,insertion sequence,768,15.669,0,0.879,0.997,2,91,NODE_27_length_18876_cov_15.668676,11898
IS26,IS6;IS26L;IS26R;IS46;IS140;IS160,predicted,insertion sequence,820,59.089,0,1.0,1.0,0,0,NODE_45_length_820_cov_59.089466,1
ISEch5,,predicted,insertion sequence,710,129.283,0,0.879,0.994,3,83,NODE_47_length_713_cov_129.283276,3
