#date: 2020-01-22_12:45
#sample: denmark_broilers_7
#mge_finder version: 0.1.3a
#mgedb version: 0.2.2
#blastn version: 2.7.1+
name,synonyms,prediction,type,allele_len,depth,e_value,identity,coverage,gaps,substitution,contig,start
IS285,,predicted,insertion sequence,1300,12.303,0,0.848,0.971,20,181,NODE_1_length_821053_cov_12.303114,87981
MITEPlu5,,predicted,mite,111,12.303,0.0,0.865,0.902,0,15,NODE_1_length_821053_cov_12.303114,486646
MITEYpe1,,predicted,mite,117,12.303,0.0,0.786,0.951,0,25,NODE_1_length_821053_cov_12.303114,198558
MITEYpe1,,predicted,mite,115,14.282,0.0,0.795,0.902,4,20,NODE_3_length_376801_cov_14.282220,135322
MITEPlu5,,predicted,mite,111,12.83,0.0,0.847,0.902,0,17,NODE_4_length_316045_cov_12.829934,174783
MITEYpe1,,predicted,mite,124,12.83,0.0,0.79,1.0,1,25,NODE_4_length_316045_cov_12.829934,29300
MITEEc1,,predicted,mite,124,14.484,0.0,0.795,0.951,7,19,NODE_5_length_282781_cov_14.484278,199446
MITEYpe1,,predicted,mite,123,13.718,0.0,0.78,1.0,0,27,NODE_8_length_239264_cov_13.718157,177628
MITEYpe1,,predicted,mite,112,13.718,0.0,0.777,0.911,0,25,NODE_8_length_239264_cov_13.718157,210285
MITEEc1,,predicted,mite,120,13.002,0.0,0.821,0.927,6,16,NODE_9_length_224389_cov_13.001587,187717
MITEYpe1,,predicted,mite,116,13.002,0.0,0.797,0.902,5,19,NODE_9_length_224389_cov_13.001587,189878
MITEEc1,,predicted,mite,123,12.413,0.0,0.935,1.0,0,8,NODE_13_length_105630_cov_12.413287,102145
MITEEc1,,predicted,mite,123,13.389,0.0,0.935,1.0,0,8,NODE_14_length_105520_cov_13.388565,93286
MITEYpe1,,predicted,mite,122,13.389,0.0,0.823,0.967,3,19,NODE_14_length_105520_cov_13.388565,39820
MITEEc1,,predicted,mite,120,14.385,0.0,0.805,0.935,5,19,NODE_15_length_90710_cov_14.384697,26221
MITEYpe1,,predicted,mite,114,14.385,0.0,0.793,0.902,3,21,NODE_15_length_90710_cov_14.384697,83985
ISSen1,,predicted,insertion sequence,1312,12.295,0,0.996,1.0,0,5,NODE_19_length_74838_cov_12.294977,477
MITEYpe1,,predicted,mite,123,13.392,0.0,0.784,0.967,4,23,NODE_22_length_65082_cov_13.391610,4562
ISEc42,,predicted,insertion sequence,1285,12.534,0,0.864,1.009,2,175,NODE_28_length_23647_cov_12.533673,11649
ISVsa5,IS10R,predicted,insertion sequence,1329,19.369,0,0.988,1.0,0,16,NODE_30_length_12024_cov_19.369169,5835
IS26,IS6;IS26L;IS26R;IS46;IS140;IS160,predicted,insertion sequence,820,53.483,0,1.0,1.0,0,0,NODE_49_length_820_cov_53.483405,1
ISKpn14,,predicted,insertion sequence,768,26.236,0,0.88,0.997,2,90,NODE_51_length_768_cov_26.235569,1
ISEch5,,predicted,insertion sequence,710,120.251,0,0.879,0.994,3,83,NODE_52_length_713_cov_120.250853,3
