#date: 2020-01-22_12:58
#sample: usa_broilers_6
#mge_finder version: 0.1.3a
#mgedb version: 0.2.2
#blastn version: 2.7.1+
name,synonyms,prediction,type,allele_len,depth,e_value,identity,coverage,gaps,substitution,contig,start
MITEYpe1,,predicted,mite,115,8.185,0.0,0.795,0.902,4,20,NODE_1_length_612089_cov_8.185337,417746
MITEPlu5,,predicted,mite,111,7.573,0.0,0.847,0.902,0,17,NODE_2_length_489373_cov_7.572661,354932
MITEYpe1,,predicted,mite,123,7.573,0.0,0.78,1.0,0,27,NODE_2_length_489373_cov_7.572661,12961
IS285,,predicted,insertion sequence,1300,6.472,0,0.848,0.971,20,181,NODE_3_length_271290_cov_6.471643,5318
MITEYpe1,,predicted,mite,117,6.472,0.0,0.786,0.951,0,25,NODE_3_length_271290_cov_6.471643,116244
MITEEc1,,predicted,mite,124,8.306,0.0,0.795,0.951,7,19,NODE_4_length_255118_cov_8.305815,171783
MITEPlu5,,predicted,mite,111,6.878,0.0,0.865,0.902,0,15,NODE_5_length_197066_cov_6.878440,63902
ISSen1,,predicted,insertion sequence,1312,7.511,0,0.996,1.0,0,5,NODE_6_length_193817_cov_7.511482,192030
MITEEc1,,predicted,mite,123,7.126,0.0,0.935,1.0,0,8,NODE_15_length_116921_cov_7.126436,113812
ISSty2,,predicted,insertion sequence,1259,7.495,0,1.0,1.0,0,0,NODE_16_length_111494_cov_7.494716,9039
ISEcl10,,predicted,insertion sequence,1205,7.495,0,0.944,0.998,0,67,NODE_16_length_111494_cov_7.494716,4631
MITEEc1,,predicted,mite,123,7.495,0.0,0.935,1.0,0,8,NODE_16_length_111494_cov_7.494716,26445
MITEYpe1,,predicted,mite,122,7.495,0.0,0.823,0.967,3,19,NODE_16_length_111494_cov_7.494716,79912
ISEc58,,predicted,insertion sequence,1342,9.24,0,1.0,1.0,0,0,NODE_17_length_108503_cov_9.240376,98605
ISEc27,,predicted,insertion sequence,1319,9.24,0,0.858,0.997,2,186,NODE_17_length_108503_cov_9.240376,64792
MITEEc1,,predicted,mite,120,8.633,0.0,0.805,0.935,5,19,NODE_19_length_90835_cov_8.633186,64496
MITEYpe1,,predicted,mite,114,8.633,0.0,0.793,0.902,3,21,NODE_19_length_90835_cov_8.633186,6738
ISEc10,,predicted,insertion sequence,2410,3.567,0,0.886,0.998,6,268,NODE_25_length_65993_cov_3.566787,59902
ISEc9,ISEcp1;ISEcp1B,predicted,insertion sequence,1656,7.455,0,1.0,1.0,0,0,NODE_27_length_52404_cov_7.455267,12476
MITEYpe1,,predicted,mite,117,7.87,0.0,0.761,0.951,0,28,NODE_32_length_43872_cov_7.869928,21178
MITEYpe1,,predicted,mite,116,7.87,0.0,0.797,0.902,5,19,NODE_32_length_43872_cov_7.869928,19021
MITEYpe1,,predicted,mite,112,7.293,0.0,0.777,0.911,0,25,NODE_35_length_35213_cov_7.292795,6688
MITEYpe1,,predicted,mite,124,6.66,0.0,0.79,1.0,1,25,NODE_44_length_17931_cov_6.660133,6957
MITEYpe1,,predicted,mite,123,6.89,0.0,0.784,0.967,4,23,NODE_47_length_14582_cov_6.889934,8742
Tn6196,,predicted,unit transposon,3356,8.805,0,0.821,0.912,31,573,NODE_59_length_3589_cov_8.805026,107
IS682,,predicted,insertion sequence,2526,45.877,0,0.87,0.991,17,312,NODE_62_length_2526_cov_45.877449,1
IS5075,,predicted,insertion sequence,1327,22.002,0,0.932,1.0,0,90,NODE_67_length_1371_cov_22.002412,22
IS26,IS6;IS26L;IS26R;IS46;IS140;IS160,predicted,insertion sequence,820,26.426,0,1.0,1.0,0,0,NODE_70_length_820_cov_26.425685,1
ISEch5,,predicted,insertion sequence,710,79.401,0,0.879,0.994,3,83,NODE_73_length_713_cov_79.401024,2
